{
  "properties": [
    {
      "name": "aws.s3.buck-name",
      "type": "java.lang.String",
      "description": "Description for aws.s3.buck-name."
    },
    {
      "name": "aws.s3.access-key",
      "type": "java.lang.String",
      "description": "Description for aws.s3.access-key."
    },
    {
      "name": "aws.s3.secret-key",
      "type": "java.lang.String",
      "description": "Description for aws.s3.secret-key."
    }
  ] }